// Jest Snapshot v1, https://goo.gl/fbAQLP

exports[`The ORCID verification action creator should dispatch a "fail hydration" action if the ORCID could not be retrieved from local storage and no verification code was provided 1`] = `
Object {
  "type": "flockademic/orcid/failHydration",
}
`;

exports[`The ORCID verification action creator should dispatch a verification action if the ORCID could be retrieved from local storage 1`] = `
Object {
  "payload": Object {
    "accountId": "Some account ID",
    "orcid": "Some ORCID",
  },
  "type": "flockademic/orcid/verify",
}
`;

exports[`The ORCID verification action creator should dispatch a verification action on successful verification 1`] = `
Object {
  "payload": Object {
    "accountId": "Some account ID",
    "orcid": "Some ORCID",
  },
  "type": "flockademic/orcid/verify",
}
`;

exports[`The ORCID verification action creator should dispatch a verification failure action if local storage could not be accessed 1`] = `
Object {
  "payload": Object {
    "error": [Error: Something went wrong linking your ORCID, please try again.],
  },
  "type": "flockademic/orcid/failVerification",
}
`;

exports[`The ORCID verification action creator should dispatch a verification failure action if no JSON Web Token could be retrieved 1`] = `
Object {
  "payload": Object {
    "error": [Error: Something went wrong linking your ORCID, please try again.],
  },
  "type": "flockademic/orcid/failVerification",
}
`;

exports[`The ORCID verification action creator should dispatch a verification failure action if the user's account could not be fetched 1`] = `
Object {
  "payload": Object {
    "error": [Error: Something went wrong linking your ORCID, please try again.],
  },
  "type": "flockademic/orcid/failVerification",
}
`;

exports[`The ORCID verification action creator should dispatch a verification failure action if the verification call failed 1`] = `
Object {
  "payload": Object {
    "error": [Error: Something went wrong linking your ORCID, please try again.],
  },
  "type": "flockademic/orcid/failVerification",
}
`;

exports[`The ORCID verification action creator should dispatch an initiation action as soon as it starts the verification process 1`] = `
Object {
  "type": "flockademic/orcid/initiateVerification",
}
`;

exports[`The verification abortion action creator should dispatch an abort action 1`] = `
Object {
  "type": "flockademic/orcid/abortVerification",
}
`;
